Ecological Justice as Seen Through a Wetland Lens in Erie County
…
#Now, breaking apart wetland vector by census tract
sf::sf_use_s2(FALSE)

## Spherical geometry (s2) switched off

wetlands_intersected<-wetlands %>% 
  st_intersection(census_data)%>%
  group_by(GEOID)%>%
  summarize(wetland_area=sum(st_area(geometry)),wetland_count=n())%>%
  st_set_geometry(NULL)

#Select only GEOID, wetland_area, wetland_count
dplyr::select(wetlands_intersected, "GEOID", "wetland_area", "wetland_count")

## # A tibble: 165 x 3
##    GEOID       wetland_area wetland_count
##    <chr>              [m^2]         <int>
##  1 36029000110     1270466.            36
##  2 36029000200       18516.             1
##  3 36029000500      706793.             2
##  4 36029000900       24646.             2
##  5 36029001000      124754.             6
##  6 36029001100      159181.             4
##  7 36029001900        3737.             2
##  8 36029003000       22687.             1
##  9 36029003301        3327.             1
## 10 36029003400        9668.             1
## # ... with 155 more rows
…
